<svg class="animate figure"
   xmlns:dc="http://purl.org/dc/elements/1.1/"
   xmlns:cc="http://creativecommons.org/ns#"
   xmlns:rdf="http://www.w3.org/1999/02/22-rdf-syntax-ns#"
   xmlns:svg="http://www.w3.org/2000/svg"
   xmlns="http://www.w3.org/2000/svg"
   xmlns:xlink="http://www.w3.org/1999/xlink"
   viewBox="0 0 842 396"
   id="2-polling"
   version="1.1">
  <defs
     id="defs-poll">
    <marker
       style="overflow:visible"
       id="Arrow1Mend"
       refX="0"
       refY="0"
       orient="auto">
      <path
         transform="matrix(-0.4,0,0,-0.4,-4,0)"
         style="fill-rule:evenodd;stroke:#000000;stroke-width:1pt"
         d="M 0,0 5,-5 -12.5,0 5,5 0,0 z"
         id="path3782" />
    </marker>
    <marker
       style="overflow:visible"
       id="Arrow1Lend"
       refX="0"
       refY="0"
       orient="auto">
      <path
         transform="matrix(-0.8,0,0,-0.8,-10,0)"
         style="fill-rule:evenodd;stroke:#000000;stroke-width:1pt"
         d="M 0,0 5,-5 -12.5,0 5,5 0,0 z"
         id="path3776" />
    </marker>
    <marker
       style="overflow:visible"
       id="Arrow1Mendl"
       refX="0"
       refY="0"
       orient="auto">
      <path
         transform="matrix(-0.4,0,0,-0.4,-4,0)"
         style="fill:#008000;fill-rule:evenodd;stroke:#008000;stroke-width:1pt"
         d="M 0,0 5,-5 -12.5,0 5,5 0,0 z"
         id="path5350" />
    </marker>
    <marker
       style="overflow:visible"
       id="Arrow1Mendz"
       refX="0"
       refY="0"
       orient="auto">
      <path
         transform="matrix(-0.4,0,0,-0.4,-4,0)"
         style="fill:#000080;fill-rule:evenodd;stroke:#000080;stroke-width:1pt"
         d="M 0,0 5,-5 -12.5,0 5,5 0,0 z"
         id="path5775" />
    </marker>
    <marker
       style="overflow:visible"
       id="Arrow1Mends"
       refX="0"
       refY="0"
       orient="auto">
      <path
         transform="matrix(-0.4,0,0,-0.4,-4,0)"
         style="fill:#ff0000;fill-rule:evenodd;stroke:#ff0000;stroke-width:1pt"
         d="M 0,0 5,-5 -12.5,0 5,5 0,0 z"
         id="path6495" />
    </marker>
    <marker
       style="overflow:visible"
       id="Arrow1Mendg"
       refX="0"
       refY="0"
       orient="auto">
      <path
         transform="matrix(-0.4,0,0,-0.4,-4,0)"
         style="fill:#800000;fill-rule:evenodd;stroke:#800000;stroke-width:1pt"
         d="M 0,0 5,-5 -12.5,0 5,5 0,0 z"
         id="path6783" />
    </marker>
    <marker
       style="overflow:visible"
       id="Arrow1MendE"
       refX="0"
       refY="0"
       orient="auto">
      <path
         transform="matrix(-0.4,0,0,-0.4,-4,0)"
         style="fill:#ff0000;fill-rule:evenodd;stroke:#ff0000;stroke-width:1pt"
         d="M 0,0 5,-5 -12.5,0 5,5 0,0 z"
         id="path7133" />
    </marker>
    <marker
       style="overflow:visible"
       id="Arrow1Mend-7"
       refX="0"
       refY="0"
       orient="auto">
      <path
         transform="matrix(-0.4,0,0,-0.4,-4,0)"
         style="fill-rule:evenodd;stroke:#000000;stroke-width:1pt"
         d="M 0,0 5,-5 -12.5,0 5,5 0,0 z"
         id="path3782-5" />
    </marker>
    <marker
       style="overflow:visible"
       id="Arrow1Mendl-3"
       refX="0"
       refY="0"
       orient="auto">
      <path
         transform="matrix(-0.4,0,0,-0.4,-4,0)"
         style="fill:#008000;fill-rule:evenodd;stroke:#008000;stroke-width:1pt"
         d="M 0,0 5,-5 -12.5,0 5,5 0,0 z"
         id="path5350-5" />
    </marker>
  </defs>
  <metadata
     id="metadata7">
    <rdf:RDF>
      <cc:Work
         rdf:about="">
        <dc:format>image/svg+xml</dc:format>
        <dc:type
           rdf:resource="http://purl.org/dc/dcmitype/StillImage" />
        <dc:title />
      </cc:Work>
    </rdf:RDF>
  </metadata>
  <g
     transform="translate(-50.171875,-527.16687)"
     id="layer1">
    <text
       id="text2985"
       y="612.36218"
       x="50"
       style="font-size:40px;font-style:normal;font-weight:normal;line-height:125%;letter-spacing:0px;word-spacing:0px;fill:#000000;fill-opacity:1;stroke:none;font-family:Sans"
       xml:space="preserve"><tspan
         style="font-size:22px;fill:#008000"
         y="612.36218"
         x="50"
         id="tspan2987">Application</tspan></text>
    <text
       id="text2989"
       y="672.36218"
       x="50"
       style="font-size:40px;font-style:normal;font-weight:normal;line-height:125%;letter-spacing:0px;word-spacing:0px;fill:#000000;fill-opacity:1;stroke:none;font-family:Sans"
       xml:space="preserve"><tspan
         style="font-size:22px;fill:#0000ff"
         y="672.36218"
         x="50"
         id="tspan2991">OS</tspan></text>
    <text
       id="text2993"
       y="847.85516"
       x="52.112675"
       style="font-size:40px;font-style:normal;font-weight:normal;line-height:125%;letter-spacing:0px;word-spacing:0px;fill:#000000;fill-opacity:1;stroke:none;font-family:Sans"
       xml:space="preserve"><tspan
         style="font-size:22px;fill:#800000"
         y="847.85516"
         x="50"
         id="tspan2995">I/O Device</tspan></text>
    <path
       transform="translate(0,308.2677)"
       id="path4583"
       d="m 200,244.09448 600,0"
       style="fill:none;stroke:#000000;stroke-width:2;stroke-linecap:butt;stroke-linejoin:miter;stroke-miterlimit:4;stroke-opacity:1;stroke-dasharray:4, 2;stroke-dashoffset:0;marker-mid:none;marker-end:url(#Arrow1Lend)" />
    <text
       id="text4949"
       y="542.36218"
       x="720"
       style="font-size:40px;font-style:normal;font-weight:normal;line-height:125%;letter-spacing:0px;word-spacing:0px;fill:#000000;fill-opacity:1;stroke:none;font-family:Sans"
       xml:space="preserve"><tspan
         style="font-size:20px"
         y="542.36218"
         x="720"
         id="tspan4951">time</tspan></text>
  </g>
  <g
     id="layer2"
     opacity="0"
     transform="translate(-50.171875,-218.89917)">
    <animate class="fragment" data-audio-src="./audio/2-polling-b.ogg" data-reverse="reverse2" begin="indefinite" attributeName="opacity" from="0" to="1" dur="0.1s" fill="freeze" repeatCount="1" />
    <animate id="reverse2" begin="indefinite" attributeName="opacity" to="0" from="1" dur="0.1s" fill="freeze" repeatCount="1" />
    <path
       id="path4973"
       d="m 200,294.09448 70,0 0,0"
       style="fill:none;stroke:#008000;stroke-width:3;stroke-linecap:butt;stroke-linejoin:miter;stroke-miterlimit:4;stroke-opacity:1;stroke-dasharray:none;marker-end:url(#Arrow1Mendl)" />
    <path
       style="fill:none;stroke:#000000;stroke-width:2;stroke-linecap:butt;stroke-linejoin:miter;stroke-miterlimit:4;stroke-opacity:1;stroke-dasharray:6, 2;stroke-dashoffset:0;marker-end:url(#Arrow1Mend)"
       d="m 270,294.09448 0,60"
       id="path5388" />
    <path
       id="path5817"
       d="m 270,354.09448 10,180"
       style="fill:none;stroke:#000000;stroke-width:2;stroke-linecap:butt;stroke-linejoin:miter;stroke-miterlimit:4;stroke-opacity:1;stroke-dasharray:6, 2;stroke-dashoffset:0;marker-end:url(#Arrow1Mend)" />
    <path
       d="m 310,384.09375 0,120 280,0 0,-120 -280,0 z"
       id="path6262"
       style="fill:none;stroke:#000000;stroke-width:1;stroke-linecap:butt;stroke-miterlimit:4;stroke-opacity:1;stroke-dasharray:none;stroke-dashoffset:0"
       xlink:href="#rect6234" />
    <path
       d="m 317.3125,391.40625 0,105.375 265.375,0 0,-105.375 -265.375,0 z"
       id="path6264"
       style="fill:none;stroke:none"
       xlink:href="#rect6234" />
    <rect
       y="384.09448"
       x="310"
       height="120"
       width="280"
       id="rect6234"
       style="fill:none;stroke:#ff0000;stroke-width:1;stroke-linecap:butt;stroke-miterlimit:4;stroke-opacity:1;stroke-dasharray:none;stroke-dashoffset:0" />
    <text
       xml:space="preserve"
       style="font-size:20px;font-style:normal;font-weight:normal;line-height:125%;letter-spacing:0px;word-spacing:0px;fill:#000000;fill-opacity:1;stroke:none;font-family:Sans"
       x="317.3125"
       y="411.34122"
       id="text3071"><tspan
          x="317.3125"
          y="411.34122"
          id="tspan3073"><tspan
            x="317.3125"
            y="411.34122"
            id="tspan3075">• </tspan><tspan
            style="fill:#008000"
            id="tspan3077">Application</tspan><tspan
            id="tspan3079"> invokes</tspan>
      </tspan>
      <tspan
          x="317.3125"
          y="436.34122"
          id="tspan3083">
	<tspan
            x="317.3125"
            y="436.34122"
            style="visibility:hidden"
            id="tspan3085">• </tspan><tspan
            style="fill:#000080"
            id="tspan3087">system call</tspan><tspan
            id="tspan3089"> for I/O</tspan>
      </tspan>
      <tspan
          x="317.3125"
          y="461.34122"
          id="tspan3093">
	<tspan
	    x="317.3125"
            y="461.34122"
	    id="tspan3095">• </tspan><tspan
	    style="fill:#000080"
	    id="tspan3097">OS</tspan><tspan
	    id="tspan3099"> starts </tspan><tspan
	    style="fill:#800000"
	    id="tspan3101">I/O operation</tspan>
      </tspan>
      <tspan
	  x="317.3125"
	  y="486.34122"
	  id="tspan3105">
	<tspan
	    x="317.3125"
	    y="486.34122"
	    style="visibility:hidden"
	    id="tspan3107">•</tspan><tspan
	    id="tspan3109"> on behalf of application</tspan>
      </tspan>
    </text>
    <path
       id="path6292"
       d="m 310,424.09448 -40,-110"
       style="fill:none;stroke:#ff0000;stroke-width:1;stroke-linecap:butt;stroke-linejoin:miter;stroke-miterlimit:4;stroke-opacity:1;stroke-dasharray:none;marker-end:url(#Arrow1Mends)" />
  </g>
  <g
     id="layer3"
     opacity="0"
     transform="translate(-50.171875,-218.89917)">
    <animate class="fragment" data-audio-src="./audio/2-polling-c.ogg" data-reverse="reverse3" begin="indefinite" attributeName="opacity" from="0" to="1" dur="0.1s" fill="freeze" repeatCount="1" />
    <animate id="reverse3" begin="indefinite" attributeName="opacity" to="0" from="1" dur="0.1s" fill="freeze" repeatCount="1" />
    <path
       style="fill:none;stroke:#800000;stroke-width:3;stroke-linecap:butt;stroke-linejoin:miter;stroke-miterlimit:4;stroke-opacity:1;stroke-dasharray:none;marker-end:url(#Arrow1Mendg)"
       d="m 280,534.09448 330,0"
       id="path6576" />
    <path
       style="fill:none;stroke:#000080;stroke-width:3;stroke-linecap:butt;stroke-linejoin:miter;stroke-miterlimit:4;stroke-opacity:1;stroke-dasharray:none;marker-end:url(#Arrow1Mendz)"
       d="m 270,354.09448 400,0"
       id="path5576" />
    <text
       xml:space="preserve"
       style="font-size:20px;font-style:normal;font-weight:normal;line-height:125%;letter-spacing:0px;word-spacing:0px;fill:#000000;fill-opacity:1;stroke:none;font-family:Sans;-inkscape-font-specification:Sans;font-stretch:normal;font-variant:normal;text-anchor:start;text-align:start;writing-mode:lr"
       x="163.40625"
       y="576.71625"
       id="text3129">
      <tspan
          x="163.40625"
          y="576.71625"
          id="tspan3131">
	<tspan
            x="163.40625"
            y="576.71625"
            id="tspan3133">• </tspan><tspan
            x="181.57031"
            y="576.71625"
            style="fill:#800000"
            id="tspan3135">I/O operation</tspan><tspan
           x="312.39062"
           y="576.71625"
           id="tspan3137"> proceeds,</tspan></tspan><tspan
          x="163.40625"
          y="601.71625"
          id="tspan3141"><tspan
            x="163.40625"
            y="601.71625"
            style="visibility:hidden"
            id="tspan3143">•</tspan><tspan
            x="175.20312"
            y="601.71625"
            id="tspan3145"> monitored by OS</tspan></tspan></text>
    <rect
       y="554.09448"
       x="162"
       height="60"
       width="260"
       id="rect6920"
       style="fill:none;stroke:#ff0000;stroke-width:1;stroke-linecap:butt;stroke-miterlimit:4;stroke-opacity:1;stroke-dasharray:none;stroke-dashoffset:0" />
    <path
       id="path6922"
       d="m 422,584.09448 50,-50"
       style="fill:none;stroke:#ff0000;stroke-width:1px;stroke-linecap:butt;stroke-linejoin:miter;stroke-opacity:1;marker-end:url(#Arrow1MendE)" />
  </g>
  <g
     id="layer4"
     opacity="0"
     transform="translate(-50.171875,-218.89917)">
    <animate class="fragment" data-audio-src="./audio/2-polling-d.ogg" data-reverse="reverse4" begin="indefinite" attributeName="opacity" from="0" to="1" dur="0.1s" fill="freeze" repeatCount="1" />
    <animate id="reverse4" begin="indefinite" attributeName="opacity" to="0" from="1" dur="0.1s" fill="freeze" repeatCount="1" />
    <path
       style="fill:none;stroke:#000000;stroke-width:2;stroke-linecap:butt;stroke-linejoin:miter;stroke-miterlimit:4;stroke-opacity:1;stroke-dasharray:4, 2;stroke-dashoffset:0;marker-end:url(#Arrow1Mend)"
       d="m 610,534.09448 10,-180"
       id="path7239" />
    <text
       xml:space="preserve"
       style="font-size:20px;font-style:normal;font-weight:normal;line-height:125%;letter-spacing:0px;word-spacing:0px;fill:#000000;fill-opacity:1;stroke:none;font-family:Sans;-inkscape-font-specification:Sans;font-stretch:normal;font-variant:normal;text-anchor:start;text-align:start;writing-mode:lr"
       x="649.84375"
       y="539.71619"
       id="text3147">
      <tspan
          x="649.84375"
          y="539.71619"
          id="tspan3149"><tspan
            x="649.84375"
            y="539.71619"
            id="tspan3151">• </tspan><tspan
            x="668.00781"
            y="539.71619"
            style="fill:#800000"
            id="tspan3153">I/O operation</tspan><tspan
            x="798.82812"
            y="539.71619"
            id="tspan3155"> finishes</tspan></tspan>
      <tspan
          x="649.84375"
          y="564.71619"
          id="tspan3159"><tspan
            x="649.84375"
            y="564.71619"
            id="tspan3161">• </tspan><tspan
            x="668.00781"
            y="564.71619"
            style="fill:#000080"
            id="tspan3163">OS transfers</tspan><tspan
            x="792.30469"
            y="564.71619"
            id="tspan3165"> result to</tspan></tspan><tspan
          x="649.84375"
          y="589.71619"
          id="tspan3169"><tspan
            x="649.84375"
            y="589.71619"
            style="visibility:hidden"
            id="tspan3171">•</tspan><tspan
            x="661.64062"
            y="589.71619"
            style="fill:#008000"
            id="tspan3173"> application</tspan></tspan>
    </text>
    <rect
       style="fill:none;stroke:#ff0000;stroke-width:1;stroke-linecap:butt;stroke-miterlimit:4;stroke-opacity:1;stroke-dasharray:none;stroke-dashoffset:0"
       id="rect7488"
       width="250"
       height="90"
       x="642"
       y="514.09448" />
    <path
       style="fill:none;stroke:#ff0000;stroke-width:1px;stroke-linecap:butt;stroke-linejoin:miter;stroke-opacity:1;marker-end:url(#Arrow1Mend-7)"
       d="m 640,564.09448 -30,-30"
       id="path7490" />
    <path
       style="fill:none;stroke:#000000;stroke-width:2;stroke-linecap:butt;stroke-linejoin:miter;stroke-miterlimit:4;stroke-opacity:1;stroke-dasharray:6, 2;stroke-dashoffset:0;marker-end:url(#Arrow1Mend-7)"
       d="m 670,354.09448 0,-60"
       id="path7707" />
    <path
       id="path4973-6"
       d="m 670,294.09448 70,0 0,0"
       style="fill:none;stroke:#008000;stroke-width:3;stroke-linecap:butt;stroke-linejoin:miter;stroke-miterlimit:4;stroke-opacity:1;stroke-dasharray:none;marker-end:url(#Arrow1Mendl)" />
  </g>
</svg>
